-- Merging decision tree log ---
manifest
ADDED from /home/yash/Desktop/Fate/fate-app/android/app/src/main/AndroidManifest.xml:1:1-58:12
INJECTED from /home/yash/Desktop/Fate/fate-app/android/app/src/main/AndroidManifest.xml:1:1-58:12
INJECTED from /home/yash/Desktop/Fate/fate-app/android/app/src/main/AndroidManifest.xml:1:1-58:12
INJECTED from /home/yash/Desktop/Fate/fate-app/android/app/src/main/AndroidManifest.xml:1:1-58:12
MERGED from [:image_picker] /home/yash/Desktop/Fate/fate-app/build/image_picker/intermediates/merged_manifests/release/processReleaseManifest/merged/AndroidManifest.xml:2:1-23:12
MERGED from [:flutter_facebook_login] /home/yash/Desktop/Fate/fate-app/build/flutter_facebook_login/intermediates/merged_manifests/release/processReleaseManifest/merged/AndroidManifest.xml:2:1-7:12
MERGED from [:share] /home/yash/Desktop/Fate/fate-app/build/share/intermediates/merged_manifests/release/processReleaseManifest/merged/AndroidManifest.xml:2:1-7:12
MERGED from [com.facebook.android:facebook-login:4.29.0] /home/yash/.gradle/caches/transforms-1/files-1.1/facebook-login-4.29.0.aar/d1c9ed1dd600a5e106fe534afb66189c/AndroidManifest.xml:21:1-31:12
MERGED from [com.facebook.android:facebook-common:4.29.0] /home/yash/.gradle/caches/transforms-1/files-1.1/facebook-common-4.29.0.aar/b4adacf88e3c86bd1039bee0142e328c/AndroidManifest.xml:21:1-36:12
MERGED from [com.android.support:appcompat-v7:26.1.0] /home/yash/.gradle/caches/transforms-1/files-1.1/appcompat-v7-26.1.0.aar/b26e3e6639260099656625b21c81e58b/AndroidManifest.xml:17:1-31:12
MERGED from [com.android.support:support-v4:26.1.0] /home/yash/.gradle/caches/transforms-1/files-1.1/support-v4-26.1.0.aar/7caf2e7d144b94463bc503c5ef479543/AndroidManifest.xml:17:1-31:12
MERGED from [com.android.support:support-media-compat:26.1.0] /home/yash/.gradle/caches/transforms-1/files-1.1/support-media-compat-26.1.0.aar/b657db80612867cdbd03a26c8b976a57/AndroidManifest.xml:17:1-31:12
MERGED from [com.android.support:support-fragment:26.1.0] /home/yash/.gradle/caches/transforms-1/files-1.1/support-fragment-26.1.0.aar/068d586c85b72e00ea8f05d86715b756/AndroidManifest.xml:17:1-31:12
MERGED from [com.facebook.android:facebook-core:4.29.0] /home/yash/.gradle/caches/transforms-1/files-1.1/facebook-core-4.29.0.aar/06926383168cc44969b1132211517c2e/AndroidManifest.xml:21:1-45:12
MERGED from [com.android.support:support-core-utils:26.1.0] /home/yash/.gradle/caches/transforms-1/files-1.1/support-core-utils-26.1.0.aar/91ebe5b23ebcbfb40f86ced689b23e08/AndroidManifest.xml:17:1-31:12
MERGED from [com.android.support:animated-vector-drawable:26.1.0] /home/yash/.gradle/caches/transforms-1/files-1.1/animated-vector-drawable-26.1.0.aar/15aac9fd46ef713abdc566f5f350244b/AndroidManifest.xml:17:1-28:12
MERGED from [com.android.support:support-core-ui:26.1.0] /home/yash/.gradle/caches/transforms-1/files-1.1/support-core-ui-26.1.0.aar/2bfca91185c7bd7856ab6d11eb309eba/AndroidManifest.xml:17:1-31:12
MERGED from [com.android.support:customtabs:26.1.0] /home/yash/.gradle/caches/transforms-1/files-1.1/customtabs-26.1.0.aar/9d2bb904c1ae0023e8684e2875ba0119/AndroidManifest.xml:17:1-28:12
MERGED from [com.android.support:support-vector-drawable:26.1.0] /home/yash/.gradle/caches/transforms-1/files-1.1/support-vector-drawable-26.1.0.aar/6ca1fccbc69dfb75f0ad469cec591322/AndroidManifest.xml:17:1-28:12
MERGED from [com.android.support:support-compat:26.1.0] /home/yash/.gradle/caches/transforms-1/files-1.1/support-compat-26.1.0.aar/bc53f716cdcfc58565230e886e29ef06/AndroidManifest.xml:17:1-31:12
MERGED from [com.android.support:cardview-v7:26.1.0] /home/yash/.gradle/caches/transforms-1/files-1.1/cardview-v7-26.1.0.aar/b72f5a8014034596181f0f348b734d79/AndroidManifest.xml:17:1-28:12
MERGED from [android.arch.lifecycle:runtime:1.0.0] /home/yash/.gradle/caches/transforms-1/files-1.1/runtime-1.0.0.aar/636096598bc73580085e2470c9291d61/AndroidManifest.xml:17:1-30:12
INJECTED from /home/yash/Desktop/Fate/fate-app/android/app/src/main/AndroidManifest.xml:1:1-58:12
INJECTED from /home/yash/Desktop/Fate/fate-app/android/app/src/main/AndroidManifest.xml:1:1-58:12
INJECTED from /home/yash/Desktop/Fate/fate-app/android/app/src/main/AndroidManifest.xml:1:1-58:12
	package
		ADDED from /home/yash/Desktop/Fate/fate-app/android/app/src/main/AndroidManifest.xml:2:5-36
		INJECTED from /home/yash/Desktop/Fate/fate-app/android/app/src/main/AndroidManifest.xml
		INJECTED from /home/yash/Desktop/Fate/fate-app/android/app/src/main/AndroidManifest.xml
	android:versionName
		INJECTED from /home/yash/Desktop/Fate/fate-app/android/app/src/main/AndroidManifest.xml
		ADDED from /home/yash/Desktop/Fate/fate-app/android/app/src/main/AndroidManifest.xml:1:1-58:12
		INJECTED from /home/yash/Desktop/Fate/fate-app/android/app/src/main/AndroidManifest.xml
	android:versionCode
		INJECTED from /home/yash/Desktop/Fate/fate-app/android/app/src/main/AndroidManifest.xml
		ADDED from /home/yash/Desktop/Fate/fate-app/android/app/src/main/AndroidManifest.xml:1:1-58:12
		INJECTED from /home/yash/Desktop/Fate/fate-app/android/app/src/main/AndroidManifest.xml
	xmlns:android
		ADDED from /home/yash/Desktop/Fate/fate-app/android/app/src/main/AndroidManifest.xml:1:11-69
uses-permission#android.permission.INTERNET
ADDED from /home/yash/Desktop/Fate/fate-app/android/app/src/main/AndroidManifest.xml:8:5-66
	android:name
		ADDED from /home/yash/Desktop/Fate/fate-app/android/app/src/main/AndroidManifest.xml:8:22-64
application
ADDED from /home/yash/Desktop/Fate/fate-app/android/app/src/main/AndroidManifest.xml:15:5-57:19
MERGED from [:image_picker] /home/yash/Desktop/Fate/fate-app/build/image_picker/intermediates/merged_manifests/release/processReleaseManifest/merged/AndroidManifest.xml:11:5-21:19
MERGED from [:image_picker] /home/yash/Desktop/Fate/fate-app/build/image_picker/intermediates/merged_manifests/release/processReleaseManifest/merged/AndroidManifest.xml:11:5-21:19
MERGED from [com.facebook.android:facebook-login:4.29.0] /home/yash/.gradle/caches/transforms-1/files-1.1/facebook-login-4.29.0.aar/d1c9ed1dd600a5e106fe534afb66189c/AndroidManifest.xml:28:5-29:19
MERGED from [com.facebook.android:facebook-login:4.29.0] /home/yash/.gradle/caches/transforms-1/files-1.1/facebook-login-4.29.0.aar/d1c9ed1dd600a5e106fe534afb66189c/AndroidManifest.xml:28:5-29:19
MERGED from [com.facebook.android:facebook-common:4.29.0] /home/yash/.gradle/caches/transforms-1/files-1.1/facebook-common-4.29.0.aar/b4adacf88e3c86bd1039bee0142e328c/AndroidManifest.xml:28:5-34:19
MERGED from [com.facebook.android:facebook-common:4.29.0] /home/yash/.gradle/caches/transforms-1/files-1.1/facebook-common-4.29.0.aar/b4adacf88e3c86bd1039bee0142e328c/AndroidManifest.xml:28:5-34:19
MERGED from [com.android.support:appcompat-v7:26.1.0] /home/yash/.gradle/caches/transforms-1/files-1.1/appcompat-v7-26.1.0.aar/b26e3e6639260099656625b21c81e58b/AndroidManifest.xml:25:5-29:19
MERGED from [com.android.support:appcompat-v7:26.1.0] /home/yash/.gradle/caches/transforms-1/files-1.1/appcompat-v7-26.1.0.aar/b26e3e6639260099656625b21c81e58b/AndroidManifest.xml:25:5-29:19
MERGED from [com.android.support:support-v4:26.1.0] /home/yash/.gradle/caches/transforms-1/files-1.1/support-v4-26.1.0.aar/7caf2e7d144b94463bc503c5ef479543/AndroidManifest.xml:25:5-29:19
MERGED from [com.android.support:support-v4:26.1.0] /home/yash/.gradle/caches/transforms-1/files-1.1/support-v4-26.1.0.aar/7caf2e7d144b94463bc503c5ef479543/AndroidManifest.xml:25:5-29:19
MERGED from [com.android.support:support-media-compat:26.1.0] /home/yash/.gradle/caches/transforms-1/files-1.1/support-media-compat-26.1.0.aar/b657db80612867cdbd03a26c8b976a57/AndroidManifest.xml:25:5-29:19
MERGED from [com.android.support:support-media-compat:26.1.0] /home/yash/.gradle/caches/transforms-1/files-1.1/support-media-compat-26.1.0.aar/b657db80612867cdbd03a26c8b976a57/AndroidManifest.xml:25:5-29:19
MERGED from [com.android.support:support-fragment:26.1.0] /home/yash/.gradle/caches/transforms-1/files-1.1/support-fragment-26.1.0.aar/068d586c85b72e00ea8f05d86715b756/AndroidManifest.xml:25:5-29:19
MERGED from [com.android.support:support-fragment:26.1.0] /home/yash/.gradle/caches/transforms-1/files-1.1/support-fragment-26.1.0.aar/068d586c85b72e00ea8f05d86715b756/AndroidManifest.xml:25:5-29:19
MERGED from [com.facebook.android:facebook-core:4.29.0] /home/yash/.gradle/caches/transforms-1/files-1.1/facebook-core-4.29.0.aar/06926383168cc44969b1132211517c2e/AndroidManifest.xml:28:5-43:19
MERGED from [com.facebook.android:facebook-core:4.29.0] /home/yash/.gradle/caches/transforms-1/files-1.1/facebook-core-4.29.0.aar/06926383168cc44969b1132211517c2e/AndroidManifest.xml:28:5-43:19
MERGED from [com.android.support:support-core-utils:26.1.0] /home/yash/.gradle/caches/transforms-1/files-1.1/support-core-utils-26.1.0.aar/91ebe5b23ebcbfb40f86ced689b23e08/AndroidManifest.xml:25:5-29:19
MERGED from [com.android.support:support-core-utils:26.1.0] /home/yash/.gradle/caches/transforms-1/files-1.1/support-core-utils-26.1.0.aar/91ebe5b23ebcbfb40f86ced689b23e08/AndroidManifest.xml:25:5-29:19
MERGED from [com.android.support:animated-vector-drawable:26.1.0] /home/yash/.gradle/caches/transforms-1/files-1.1/animated-vector-drawable-26.1.0.aar/15aac9fd46ef713abdc566f5f350244b/AndroidManifest.xml:22:5-26:19
MERGED from [com.android.support:animated-vector-drawable:26.1.0] /home/yash/.gradle/caches/transforms-1/files-1.1/animated-vector-drawable-26.1.0.aar/15aac9fd46ef713abdc566f5f350244b/AndroidManifest.xml:22:5-26:19
MERGED from [com.android.support:support-core-ui:26.1.0] /home/yash/.gradle/caches/transforms-1/files-1.1/support-core-ui-26.1.0.aar/2bfca91185c7bd7856ab6d11eb309eba/AndroidManifest.xml:25:5-29:19
MERGED from [com.android.support:support-core-ui:26.1.0] /home/yash/.gradle/caches/transforms-1/files-1.1/support-core-ui-26.1.0.aar/2bfca91185c7bd7856ab6d11eb309eba/AndroidManifest.xml:25:5-29:19
MERGED from [com.android.support:customtabs:26.1.0] /home/yash/.gradle/caches/transforms-1/files-1.1/customtabs-26.1.0.aar/9d2bb904c1ae0023e8684e2875ba0119/AndroidManifest.xml:22:5-26:19
MERGED from [com.android.support:customtabs:26.1.0] /home/yash/.gradle/caches/transforms-1/files-1.1/customtabs-26.1.0.aar/9d2bb904c1ae0023e8684e2875ba0119/AndroidManifest.xml:22:5-26:19
MERGED from [com.android.support:support-vector-drawable:26.1.0] /home/yash/.gradle/caches/transforms-1/files-1.1/support-vector-drawable-26.1.0.aar/6ca1fccbc69dfb75f0ad469cec591322/AndroidManifest.xml:22:5-26:19
MERGED from [com.android.support:support-vector-drawable:26.1.0] /home/yash/.gradle/caches/transforms-1/files-1.1/support-vector-drawable-26.1.0.aar/6ca1fccbc69dfb75f0ad469cec591322/AndroidManifest.xml:22:5-26:19
MERGED from [com.android.support:support-compat:26.1.0] /home/yash/.gradle/caches/transforms-1/files-1.1/support-compat-26.1.0.aar/bc53f716cdcfc58565230e886e29ef06/AndroidManifest.xml:25:5-29:19
MERGED from [com.android.support:support-compat:26.1.0] /home/yash/.gradle/caches/transforms-1/files-1.1/support-compat-26.1.0.aar/bc53f716cdcfc58565230e886e29ef06/AndroidManifest.xml:25:5-29:19
MERGED from [com.android.support:cardview-v7:26.1.0] /home/yash/.gradle/caches/transforms-1/files-1.1/cardview-v7-26.1.0.aar/b72f5a8014034596181f0f348b734d79/AndroidManifest.xml:22:5-26:19
MERGED from [com.android.support:cardview-v7:26.1.0] /home/yash/.gradle/caches/transforms-1/files-1.1/cardview-v7-26.1.0.aar/b72f5a8014034596181f0f348b734d79/AndroidManifest.xml:22:5-26:19
MERGED from [android.arch.lifecycle:runtime:1.0.0] /home/yash/.gradle/caches/transforms-1/files-1.1/runtime-1.0.0.aar/636096598bc73580085e2470c9291d61/AndroidManifest.xml:24:5-28:19
MERGED from [android.arch.lifecycle:runtime:1.0.0] /home/yash/.gradle/caches/transforms-1/files-1.1/runtime-1.0.0.aar/636096598bc73580085e2470c9291d61/AndroidManifest.xml:24:5-28:19
	android:supportsRtl
		ADDED from [com.facebook.android:facebook-login:4.29.0] /home/yash/.gradle/caches/transforms-1/files-1.1/facebook-login-4.29.0.aar/d1c9ed1dd600a5e106fe534afb66189c/AndroidManifest.xml:28:18-44
	android:label
		ADDED from /home/yash/Desktop/Fate/fate-app/android/app/src/main/AndroidManifest.xml:17:9-34
	android:icon
		ADDED from /home/yash/Desktop/Fate/fate-app/android/app/src/main/AndroidManifest.xml:18:9-43
	android:name
		ADDED from /home/yash/Desktop/Fate/fate-app/android/app/src/main/AndroidManifest.xml:16:9-57
activity#com.example.datingapp.MainActivity
ADDED from /home/yash/Desktop/Fate/fate-app/android/app/src/main/AndroidManifest.xml:19:9-37:20
	android:launchMode
		ADDED from /home/yash/Desktop/Fate/fate-app/android/app/src/main/AndroidManifest.xml:21:13-43
	android:hardwareAccelerated
		ADDED from /home/yash/Desktop/Fate/fate-app/android/app/src/main/AndroidManifest.xml:24:13-47
	android:windowSoftInputMode
		ADDED from /home/yash/Desktop/Fate/fate-app/android/app/src/main/AndroidManifest.xml:25:13-55
	android:configChanges
		ADDED from /home/yash/Desktop/Fate/fate-app/android/app/src/main/AndroidManifest.xml:23:13-137
	android:theme
		ADDED from /home/yash/Desktop/Fate/fate-app/android/app/src/main/AndroidManifest.xml:22:13-47
	android:name
		ADDED from /home/yash/Desktop/Fate/fate-app/android/app/src/main/AndroidManifest.xml:20:13-41
meta-data#io.flutter.app.android.SplashScreenUntilFirstFrame
ADDED from /home/yash/Desktop/Fate/fate-app/android/app/src/main/AndroidManifest.xml:30:13-32:40
	android:value
		ADDED from /home/yash/Desktop/Fate/fate-app/android/app/src/main/AndroidManifest.xml:32:17-37
	android:name
		ADDED from /home/yash/Desktop/Fate/fate-app/android/app/src/main/AndroidManifest.xml:31:17-82
intent-filter#action:name:android.intent.action.MAIN+category:name:android.intent.category.LAUNCHER
ADDED from /home/yash/Desktop/Fate/fate-app/android/app/src/main/AndroidManifest.xml:33:13-36:29
action#android.intent.action.MAIN
ADDED from /home/yash/Desktop/Fate/fate-app/android/app/src/main/AndroidManifest.xml:34:17-68
	android:name
		ADDED from /home/yash/Desktop/Fate/fate-app/android/app/src/main/AndroidManifest.xml:34:25-66
category#android.intent.category.LAUNCHER
ADDED from /home/yash/Desktop/Fate/fate-app/android/app/src/main/AndroidManifest.xml:35:17-76
	android:name
		ADDED from /home/yash/Desktop/Fate/fate-app/android/app/src/main/AndroidManifest.xml:35:27-74
meta-data#com.facebook.sdk.ApplicationId
ADDED from /home/yash/Desktop/Fate/fate-app/android/app/src/main/AndroidManifest.xml:39:9-40:46
	android:value
		ADDED from /home/yash/Desktop/Fate/fate-app/android/app/src/main/AndroidManifest.xml:40:5-44
	android:name
		ADDED from /home/yash/Desktop/Fate/fate-app/android/app/src/main/AndroidManifest.xml:39:20-65
activity#com.facebook.FacebookActivity
ADDED from /home/yash/Desktop/Fate/fate-app/android/app/src/main/AndroidManifest.xml:42:1-45:40
MERGED from [com.facebook.android:facebook-common:4.29.0] /home/yash/.gradle/caches/transforms-1/files-1.1/facebook-common-4.29.0.aar/b4adacf88e3c86bd1039bee0142e328c/AndroidManifest.xml:29:9-32:66
MERGED from [com.facebook.android:facebook-common:4.29.0] /home/yash/.gradle/caches/transforms-1/files-1.1/facebook-common-4.29.0.aar/b4adacf88e3c86bd1039bee0142e328c/AndroidManifest.xml:29:9-32:66
	android:label
		ADDED from /home/yash/Desktop/Fate/fate-app/android/app/src/main/AndroidManifest.xml:45:5-37
	android:configChanges
		ADDED from /home/yash/Desktop/Fate/fate-app/android/app/src/main/AndroidManifest.xml:43:5-101
	android:theme
		ADDED from [com.facebook.android:facebook-common:4.29.0] /home/yash/.gradle/caches/transforms-1/files-1.1/facebook-common-4.29.0.aar/b4adacf88e3c86bd1039bee0142e328c/AndroidManifest.xml:32:13-63
	android:name
		ADDED from /home/yash/Desktop/Fate/fate-app/android/app/src/main/AndroidManifest.xml:42:11-55
activity#com.facebook.CustomTabActivity
ADDED from /home/yash/Desktop/Fate/fate-app/android/app/src/main/AndroidManifest.xml:47:1-56:12
	android:exported
		ADDED from /home/yash/Desktop/Fate/fate-app/android/app/src/main/AndroidManifest.xml:49:5-28
	android:name
		ADDED from /home/yash/Desktop/Fate/fate-app/android/app/src/main/AndroidManifest.xml:48:5-50
intent-filter#action:name:android.intent.action.VIEW+category:name:android.intent.category.BROWSABLE+category:name:android.intent.category.DEFAULT+data:scheme:@string/fb_login_protocol_scheme
ADDED from /home/yash/Desktop/Fate/fate-app/android/app/src/main/AndroidManifest.xml:50:5-55:21
action#android.intent.action.VIEW
ADDED from /home/yash/Desktop/Fate/fate-app/android/app/src/main/AndroidManifest.xml:51:9-61
	android:name
		ADDED from /home/yash/Desktop/Fate/fate-app/android/app/src/main/AndroidManifest.xml:51:17-58
category#android.intent.category.DEFAULT
ADDED from /home/yash/Desktop/Fate/fate-app/android/app/src/main/AndroidManifest.xml:52:9-68
	android:name
		ADDED from /home/yash/Desktop/Fate/fate-app/android/app/src/main/AndroidManifest.xml:52:19-65
category#android.intent.category.BROWSABLE
ADDED from /home/yash/Desktop/Fate/fate-app/android/app/src/main/AndroidManifest.xml:53:9-70
	android:name
		ADDED from /home/yash/Desktop/Fate/fate-app/android/app/src/main/AndroidManifest.xml:53:19-67
data
ADDED from /home/yash/Desktop/Fate/fate-app/android/app/src/main/AndroidManifest.xml:54:9-67
	android:scheme
		ADDED from /home/yash/Desktop/Fate/fate-app/android/app/src/main/AndroidManifest.xml:54:15-64
uses-sdk
INJECTED from /home/yash/Desktop/Fate/fate-app/android/app/src/main/AndroidManifest.xml reason: use-sdk injection requested
INJECTED from /home/yash/Desktop/Fate/fate-app/android/app/src/main/AndroidManifest.xml
INJECTED from /home/yash/Desktop/Fate/fate-app/android/app/src/main/AndroidManifest.xml
MERGED from [:image_picker] /home/yash/Desktop/Fate/fate-app/build/image_picker/intermediates/merged_manifests/release/processReleaseManifest/merged/AndroidManifest.xml:5:5-44
MERGED from [:image_picker] /home/yash/Desktop/Fate/fate-app/build/image_picker/intermediates/merged_manifests/release/processReleaseManifest/merged/AndroidManifest.xml:5:5-44
MERGED from [:flutter_facebook_login] /home/yash/Desktop/Fate/fate-app/build/flutter_facebook_login/intermediates/merged_manifests/release/processReleaseManifest/merged/AndroidManifest.xml:5:5-44
MERGED from [:flutter_facebook_login] /home/yash/Desktop/Fate/fate-app/build/flutter_facebook_login/intermediates/merged_manifests/release/processReleaseManifest/merged/AndroidManifest.xml:5:5-44
MERGED from [:share] /home/yash/Desktop/Fate/fate-app/build/share/intermediates/merged_manifests/release/processReleaseManifest/merged/AndroidManifest.xml:5:5-44
MERGED from [:share] /home/yash/Desktop/Fate/fate-app/build/share/intermediates/merged_manifests/release/processReleaseManifest/merged/AndroidManifest.xml:5:5-44
MERGED from [com.facebook.android:facebook-login:4.29.0] /home/yash/.gradle/caches/transforms-1/files-1.1/facebook-login-4.29.0.aar/d1c9ed1dd600a5e106fe534afb66189c/AndroidManifest.xml:24:5-26:41
MERGED from [com.facebook.android:facebook-login:4.29.0] /home/yash/.gradle/caches/transforms-1/files-1.1/facebook-login-4.29.0.aar/d1c9ed1dd600a5e106fe534afb66189c/AndroidManifest.xml:24:5-26:41
MERGED from [com.facebook.android:facebook-common:4.29.0] /home/yash/.gradle/caches/transforms-1/files-1.1/facebook-common-4.29.0.aar/b4adacf88e3c86bd1039bee0142e328c/AndroidManifest.xml:24:5-26:41
MERGED from [com.facebook.android:facebook-common:4.29.0] /home/yash/.gradle/caches/transforms-1/files-1.1/facebook-common-4.29.0.aar/b4adacf88e3c86bd1039bee0142e328c/AndroidManifest.xml:24:5-26:41
MERGED from [com.android.support:appcompat-v7:26.1.0] /home/yash/.gradle/caches/transforms-1/files-1.1/appcompat-v7-26.1.0.aar/b26e3e6639260099656625b21c81e58b/AndroidManifest.xml:21:5-23:78
MERGED from [com.android.support:appcompat-v7:26.1.0] /home/yash/.gradle/caches/transforms-1/files-1.1/appcompat-v7-26.1.0.aar/b26e3e6639260099656625b21c81e58b/AndroidManifest.xml:21:5-23:78
MERGED from [com.android.support:support-v4:26.1.0] /home/yash/.gradle/caches/transforms-1/files-1.1/support-v4-26.1.0.aar/7caf2e7d144b94463bc503c5ef479543/AndroidManifest.xml:21:5-23:54
MERGED from [com.android.support:support-v4:26.1.0] /home/yash/.gradle/caches/transforms-1/files-1.1/support-v4-26.1.0.aar/7caf2e7d144b94463bc503c5ef479543/AndroidManifest.xml:21:5-23:54
MERGED from [com.android.support:support-media-compat:26.1.0] /home/yash/.gradle/caches/transforms-1/files-1.1/support-media-compat-26.1.0.aar/b657db80612867cdbd03a26c8b976a57/AndroidManifest.xml:21:5-23:63
MERGED from [com.android.support:support-media-compat:26.1.0] /home/yash/.gradle/caches/transforms-1/files-1.1/support-media-compat-26.1.0.aar/b657db80612867cdbd03a26c8b976a57/AndroidManifest.xml:21:5-23:63
MERGED from [com.android.support:support-fragment:26.1.0] /home/yash/.gradle/caches/transforms-1/files-1.1/support-fragment-26.1.0.aar/068d586c85b72e00ea8f05d86715b756/AndroidManifest.xml:21:5-23:60
MERGED from [com.android.support:support-fragment:26.1.0] /home/yash/.gradle/caches/transforms-1/files-1.1/support-fragment-26.1.0.aar/068d586c85b72e00ea8f05d86715b756/AndroidManifest.xml:21:5-23:60
MERGED from [com.facebook.android:facebook-core:4.29.0] /home/yash/.gradle/caches/transforms-1/files-1.1/facebook-core-4.29.0.aar/06926383168cc44969b1132211517c2e/AndroidManifest.xml:24:5-26:41
MERGED from [com.facebook.android:facebook-core:4.29.0] /home/yash/.gradle/caches/transforms-1/files-1.1/facebook-core-4.29.0.aar/06926383168cc44969b1132211517c2e/AndroidManifest.xml:24:5-26:41
MERGED from [com.android.support:support-core-utils:26.1.0] /home/yash/.gradle/caches/transforms-1/files-1.1/support-core-utils-26.1.0.aar/91ebe5b23ebcbfb40f86ced689b23e08/AndroidManifest.xml:21:5-23:61
MERGED from [com.android.support:support-core-utils:26.1.0] /home/yash/.gradle/caches/transforms-1/files-1.1/support-core-utils-26.1.0.aar/91ebe5b23ebcbfb40f86ced689b23e08/AndroidManifest.xml:21:5-23:61
MERGED from [com.android.support:animated-vector-drawable:26.1.0] /home/yash/.gradle/caches/transforms-1/files-1.1/animated-vector-drawable-26.1.0.aar/15aac9fd46ef713abdc566f5f350244b/AndroidManifest.xml:20:5-44
MERGED from [com.android.support:animated-vector-drawable:26.1.0] /home/yash/.gradle/caches/transforms-1/files-1.1/animated-vector-drawable-26.1.0.aar/15aac9fd46ef713abdc566f5f350244b/AndroidManifest.xml:20:5-44
MERGED from [com.android.support:support-core-ui:26.1.0] /home/yash/.gradle/caches/transforms-1/files-1.1/support-core-ui-26.1.0.aar/2bfca91185c7bd7856ab6d11eb309eba/AndroidManifest.xml:21:5-23:58
MERGED from [com.android.support:support-core-ui:26.1.0] /home/yash/.gradle/caches/transforms-1/files-1.1/support-core-ui-26.1.0.aar/2bfca91185c7bd7856ab6d11eb309eba/AndroidManifest.xml:21:5-23:58
MERGED from [com.android.support:customtabs:26.1.0] /home/yash/.gradle/caches/transforms-1/files-1.1/customtabs-26.1.0.aar/9d2bb904c1ae0023e8684e2875ba0119/AndroidManifest.xml:20:5-44
MERGED from [com.android.support:customtabs:26.1.0] /home/yash/.gradle/caches/transforms-1/files-1.1/customtabs-26.1.0.aar/9d2bb904c1ae0023e8684e2875ba0119/AndroidManifest.xml:20:5-44
MERGED from [com.android.support:support-vector-drawable:26.1.0] /home/yash/.gradle/caches/transforms-1/files-1.1/support-vector-drawable-26.1.0.aar/6ca1fccbc69dfb75f0ad469cec591322/AndroidManifest.xml:20:5-44
MERGED from [com.android.support:support-vector-drawable:26.1.0] /home/yash/.gradle/caches/transforms-1/files-1.1/support-vector-drawable-26.1.0.aar/6ca1fccbc69dfb75f0ad469cec591322/AndroidManifest.xml:20:5-44
MERGED from [com.android.support:support-compat:26.1.0] /home/yash/.gradle/caches/transforms-1/files-1.1/support-compat-26.1.0.aar/bc53f716cdcfc58565230e886e29ef06/AndroidManifest.xml:21:5-23:58
MERGED from [com.android.support:support-compat:26.1.0] /home/yash/.gradle/caches/transforms-1/files-1.1/support-compat-26.1.0.aar/bc53f716cdcfc58565230e886e29ef06/AndroidManifest.xml:21:5-23:58
MERGED from [com.android.support:cardview-v7:26.1.0] /home/yash/.gradle/caches/transforms-1/files-1.1/cardview-v7-26.1.0.aar/b72f5a8014034596181f0f348b734d79/AndroidManifest.xml:20:5-44
MERGED from [com.android.support:cardview-v7:26.1.0] /home/yash/.gradle/caches/transforms-1/files-1.1/cardview-v7-26.1.0.aar/b72f5a8014034596181f0f348b734d79/AndroidManifest.xml:20:5-44
MERGED from [android.arch.lifecycle:runtime:1.0.0] /home/yash/.gradle/caches/transforms-1/files-1.1/runtime-1.0.0.aar/636096598bc73580085e2470c9291d61/AndroidManifest.xml:20:5-22:41
MERGED from [android.arch.lifecycle:runtime:1.0.0] /home/yash/.gradle/caches/transforms-1/files-1.1/runtime-1.0.0.aar/636096598bc73580085e2470c9291d61/AndroidManifest.xml:20:5-22:41
INJECTED from /home/yash/Desktop/Fate/fate-app/android/app/src/main/AndroidManifest.xml
INJECTED from /home/yash/Desktop/Fate/fate-app/android/app/src/main/AndroidManifest.xml
	tools:overrideLibrary
		ADDED from [com.android.support:appcompat-v7:26.1.0] /home/yash/.gradle/caches/transforms-1/files-1.1/appcompat-v7-26.1.0.aar/b26e3e6639260099656625b21c81e58b/AndroidManifest.xml:23:9-75
	android:targetSdkVersion
		INJECTED from /home/yash/Desktop/Fate/fate-app/android/app/src/main/AndroidManifest.xml
		ADDED from /home/yash/Desktop/Fate/fate-app/android/app/src/main/AndroidManifest.xml
		INJECTED from /home/yash/Desktop/Fate/fate-app/android/app/src/main/AndroidManifest.xml
	android:minSdkVersion
		INJECTED from /home/yash/Desktop/Fate/fate-app/android/app/src/main/AndroidManifest.xml
		ADDED from /home/yash/Desktop/Fate/fate-app/android/app/src/main/AndroidManifest.xml
		INJECTED from /home/yash/Desktop/Fate/fate-app/android/app/src/main/AndroidManifest.xml
uses-permission#android.permission.READ_EXTERNAL_STORAGE
ADDED from [:image_picker] /home/yash/Desktop/Fate/fate-app/build/image_picker/intermediates/merged_manifests/release/processReleaseManifest/merged/AndroidManifest.xml:7:5-80
	android:name
		ADDED from [:image_picker] /home/yash/Desktop/Fate/fate-app/build/image_picker/intermediates/merged_manifests/release/processReleaseManifest/merged/AndroidManifest.xml:7:22-77
uses-permission#android.permission.WRITE_EXTERNAL_STORAGE
ADDED from [:image_picker] /home/yash/Desktop/Fate/fate-app/build/image_picker/intermediates/merged_manifests/release/processReleaseManifest/merged/AndroidManifest.xml:8:5-81
	android:name
		ADDED from [:image_picker] /home/yash/Desktop/Fate/fate-app/build/image_picker/intermediates/merged_manifests/release/processReleaseManifest/merged/AndroidManifest.xml:8:22-78
uses-permission#android.permission.CAMERA
ADDED from [:image_picker] /home/yash/Desktop/Fate/fate-app/build/image_picker/intermediates/merged_manifests/release/processReleaseManifest/merged/AndroidManifest.xml:9:5-65
	android:name
		ADDED from [:image_picker] /home/yash/Desktop/Fate/fate-app/build/image_picker/intermediates/merged_manifests/release/processReleaseManifest/merged/AndroidManifest.xml:9:22-62
provider#io.flutter.plugins.imagepicker.ImagePickerFileProvider
ADDED from [:image_picker] /home/yash/Desktop/Fate/fate-app/build/image_picker/intermediates/merged_manifests/release/processReleaseManifest/merged/AndroidManifest.xml:12:9-20:20
	android:grantUriPermissions
		ADDED from [:image_picker] /home/yash/Desktop/Fate/fate-app/build/image_picker/intermediates/merged_manifests/release/processReleaseManifest/merged/AndroidManifest.xml:16:13-47
	android:authorities
		ADDED from [:image_picker] /home/yash/Desktop/Fate/fate-app/build/image_picker/intermediates/merged_manifests/release/processReleaseManifest/merged/AndroidManifest.xml:14:13-74
	android:exported
		ADDED from [:image_picker] /home/yash/Desktop/Fate/fate-app/build/image_picker/intermediates/merged_manifests/release/processReleaseManifest/merged/AndroidManifest.xml:15:13-37
	android:name
		ADDED from [:image_picker] /home/yash/Desktop/Fate/fate-app/build/image_picker/intermediates/merged_manifests/release/processReleaseManifest/merged/AndroidManifest.xml:13:13-82
meta-data#android.support.FILE_PROVIDER_PATHS
ADDED from [:image_picker] /home/yash/Desktop/Fate/fate-app/build/image_picker/intermediates/merged_manifests/release/processReleaseManifest/merged/AndroidManifest.xml:17:13-19:75
	android:resource
		ADDED from [:image_picker] /home/yash/Desktop/Fate/fate-app/build/image_picker/intermediates/merged_manifests/release/processReleaseManifest/merged/AndroidManifest.xml:19:17-72
	android:name
		ADDED from [:image_picker] /home/yash/Desktop/Fate/fate-app/build/image_picker/intermediates/merged_manifests/release/processReleaseManifest/merged/AndroidManifest.xml:18:17-67
activity#com.facebook.CustomTabMainActivity
ADDED from [com.facebook.android:facebook-common:4.29.0] /home/yash/.gradle/caches/transforms-1/files-1.1/facebook-common-4.29.0.aar/b4adacf88e3c86bd1039bee0142e328c/AndroidManifest.xml:33:9-71
	android:name
		ADDED from [com.facebook.android:facebook-common:4.29.0] /home/yash/.gradle/caches/transforms-1/files-1.1/facebook-common-4.29.0.aar/b4adacf88e3c86bd1039bee0142e328c/AndroidManifest.xml:33:19-68
meta-data#android.support.VERSION
ADDED from [com.android.support:appcompat-v7:26.1.0] /home/yash/.gradle/caches/transforms-1/files-1.1/appcompat-v7-26.1.0.aar/b26e3e6639260099656625b21c81e58b/AndroidManifest.xml:26:9-28:38
MERGED from [com.android.support:support-v4:26.1.0] /home/yash/.gradle/caches/transforms-1/files-1.1/support-v4-26.1.0.aar/7caf2e7d144b94463bc503c5ef479543/AndroidManifest.xml:26:9-28:38
MERGED from [com.android.support:support-v4:26.1.0] /home/yash/.gradle/caches/transforms-1/files-1.1/support-v4-26.1.0.aar/7caf2e7d144b94463bc503c5ef479543/AndroidManifest.xml:26:9-28:38
MERGED from [com.android.support:support-media-compat:26.1.0] /home/yash/.gradle/caches/transforms-1/files-1.1/support-media-compat-26.1.0.aar/b657db80612867cdbd03a26c8b976a57/AndroidManifest.xml:26:9-28:38
MERGED from [com.android.support:support-media-compat:26.1.0] /home/yash/.gradle/caches/transforms-1/files-1.1/support-media-compat-26.1.0.aar/b657db80612867cdbd03a26c8b976a57/AndroidManifest.xml:26:9-28:38
MERGED from [com.android.support:support-fragment:26.1.0] /home/yash/.gradle/caches/transforms-1/files-1.1/support-fragment-26.1.0.aar/068d586c85b72e00ea8f05d86715b756/AndroidManifest.xml:26:9-28:38
MERGED from [com.android.support:support-fragment:26.1.0] /home/yash/.gradle/caches/transforms-1/files-1.1/support-fragment-26.1.0.aar/068d586c85b72e00ea8f05d86715b756/AndroidManifest.xml:26:9-28:38
MERGED from [com.android.support:support-core-utils:26.1.0] /home/yash/.gradle/caches/transforms-1/files-1.1/support-core-utils-26.1.0.aar/91ebe5b23ebcbfb40f86ced689b23e08/AndroidManifest.xml:26:9-28:38
MERGED from [com.android.support:support-core-utils:26.1.0] /home/yash/.gradle/caches/transforms-1/files-1.1/support-core-utils-26.1.0.aar/91ebe5b23ebcbfb40f86ced689b23e08/AndroidManifest.xml:26:9-28:38
MERGED from [com.android.support:animated-vector-drawable:26.1.0] /home/yash/.gradle/caches/transforms-1/files-1.1/animated-vector-drawable-26.1.0.aar/15aac9fd46ef713abdc566f5f350244b/AndroidManifest.xml:23:9-25:38
MERGED from [com.android.support:animated-vector-drawable:26.1.0] /home/yash/.gradle/caches/transforms-1/files-1.1/animated-vector-drawable-26.1.0.aar/15aac9fd46ef713abdc566f5f350244b/AndroidManifest.xml:23:9-25:38
MERGED from [com.android.support:support-core-ui:26.1.0] /home/yash/.gradle/caches/transforms-1/files-1.1/support-core-ui-26.1.0.aar/2bfca91185c7bd7856ab6d11eb309eba/AndroidManifest.xml:26:9-28:38
MERGED from [com.android.support:support-core-ui:26.1.0] /home/yash/.gradle/caches/transforms-1/files-1.1/support-core-ui-26.1.0.aar/2bfca91185c7bd7856ab6d11eb309eba/AndroidManifest.xml:26:9-28:38
MERGED from [com.android.support:customtabs:26.1.0] /home/yash/.gradle/caches/transforms-1/files-1.1/customtabs-26.1.0.aar/9d2bb904c1ae0023e8684e2875ba0119/AndroidManifest.xml:23:9-25:38
MERGED from [com.android.support:customtabs:26.1.0] /home/yash/.gradle/caches/transforms-1/files-1.1/customtabs-26.1.0.aar/9d2bb904c1ae0023e8684e2875ba0119/AndroidManifest.xml:23:9-25:38
MERGED from [com.android.support:support-vector-drawable:26.1.0] /home/yash/.gradle/caches/transforms-1/files-1.1/support-vector-drawable-26.1.0.aar/6ca1fccbc69dfb75f0ad469cec591322/AndroidManifest.xml:23:9-25:38
MERGED from [com.android.support:support-vector-drawable:26.1.0] /home/yash/.gradle/caches/transforms-1/files-1.1/support-vector-drawable-26.1.0.aar/6ca1fccbc69dfb75f0ad469cec591322/AndroidManifest.xml:23:9-25:38
MERGED from [com.android.support:support-compat:26.1.0] /home/yash/.gradle/caches/transforms-1/files-1.1/support-compat-26.1.0.aar/bc53f716cdcfc58565230e886e29ef06/AndroidManifest.xml:26:9-28:38
MERGED from [com.android.support:support-compat:26.1.0] /home/yash/.gradle/caches/transforms-1/files-1.1/support-compat-26.1.0.aar/bc53f716cdcfc58565230e886e29ef06/AndroidManifest.xml:26:9-28:38
MERGED from [com.android.support:cardview-v7:26.1.0] /home/yash/.gradle/caches/transforms-1/files-1.1/cardview-v7-26.1.0.aar/b72f5a8014034596181f0f348b734d79/AndroidManifest.xml:23:9-25:38
MERGED from [com.android.support:cardview-v7:26.1.0] /home/yash/.gradle/caches/transforms-1/files-1.1/cardview-v7-26.1.0.aar/b72f5a8014034596181f0f348b734d79/AndroidManifest.xml:23:9-25:38
	android:value
		ADDED from [com.android.support:appcompat-v7:26.1.0] /home/yash/.gradle/caches/transforms-1/files-1.1/appcompat-v7-26.1.0.aar/b26e3e6639260099656625b21c81e58b/AndroidManifest.xml:28:13-35
	android:name
		ADDED from [com.android.support:appcompat-v7:26.1.0] /home/yash/.gradle/caches/transforms-1/files-1.1/appcompat-v7-26.1.0.aar/b26e3e6639260099656625b21c81e58b/AndroidManifest.xml:27:13-51
provider#com.facebook.internal.FacebookInitProvider
ADDED from [com.facebook.android:facebook-core:4.29.0] /home/yash/.gradle/caches/transforms-1/files-1.1/facebook-core-4.29.0.aar/06926383168cc44969b1132211517c2e/AndroidManifest.xml:39:9-42:40
	android:authorities
		ADDED from [com.facebook.android:facebook-core:4.29.0] /home/yash/.gradle/caches/transforms-1/files-1.1/facebook-core-4.29.0.aar/06926383168cc44969b1132211517c2e/AndroidManifest.xml:41:13-72
	android:exported
		ADDED from [com.facebook.android:facebook-core:4.29.0] /home/yash/.gradle/caches/transforms-1/files-1.1/facebook-core-4.29.0.aar/06926383168cc44969b1132211517c2e/AndroidManifest.xml:42:13-37
	android:name
		ADDED from [com.facebook.android:facebook-core:4.29.0] /home/yash/.gradle/caches/transforms-1/files-1.1/facebook-core-4.29.0.aar/06926383168cc44969b1132211517c2e/AndroidManifest.xml:40:13-70
meta-data#android.arch.lifecycle.VERSION
ADDED from [android.arch.lifecycle:runtime:1.0.0] /home/yash/.gradle/caches/transforms-1/files-1.1/runtime-1.0.0.aar/636096598bc73580085e2470c9291d61/AndroidManifest.xml:25:9-27:47
	android:value
		ADDED from [android.arch.lifecycle:runtime:1.0.0] /home/yash/.gradle/caches/transforms-1/files-1.1/runtime-1.0.0.aar/636096598bc73580085e2470c9291d61/AndroidManifest.xml:27:13-44
	android:name
		ADDED from [android.arch.lifecycle:runtime:1.0.0] /home/yash/.gradle/caches/transforms-1/files-1.1/runtime-1.0.0.aar/636096598bc73580085e2470c9291d61/AndroidManifest.xml:26:13-58
